{
  "version": "graphviz-9.0.0",
  "sources": [
    {
      "format": "gz",
      "url": "https://gitlab.com/api/v4/projects/4207231/packages/generic/graphviz-releases/9.0.0/graphviz-9.0.0.tar.gz",
      "sha256": "https://gitlab.com/api/v4/projects/4207231/packages/generic/graphviz-releases/9.0.0/graphviz-9.0.0.tar.gz.sha256"
    },
    {
      "format": "xz",
      "url": "https://gitlab.com/api/v4/projects/4207231/packages/generic/graphviz-releases/9.0.0/graphviz-9.0.0.tar.xz",
      "sha256": "https://gitlab.com/api/v4/projects/4207231/packages/generic/graphviz-releases/9.0.0/graphviz-9.0.0.tar.xz.sha256"
    }
  ],
  "windows": [
    {
      "format": "ZIP archive",
      "url": "https://gitlab.com/api/v4/projects/4207231/packages/generic/graphviz-releases/9.0.0/windows_10_msbuild_Release_graphviz-9.0.0-win32.zip",
      "bits": 32,
      "sha256": "https://gitlab.com/api/v4/projects/4207231/packages/generic/graphviz-releases/9.0.0/windows_10_msbuild_Release_graphviz-9.0.0-win32.zip.sha256"
    },
    {
      "format": "EXE installer",
      "url": "https://gitlab.com/api/v4/projects/4207231/packages/generic/graphviz-releases/9.0.0/windows_10_cmake_Release_graphviz-install-9.0.0-win64.exe",
      "bits": 64,
      "sha256": "https://gitlab.com/api/v4/projects/4207231/packages/generic/graphviz-releases/9.0.0/windows_10_cmake_Release_graphviz-install-9.0.0-win64.exe.sha256"
    },
    {
      "format": "EXE installer",
      "url": "https://gitlab.com/api/v4/projects/4207231/packages/generic/graphviz-releases/9.0.0/windows_10_cmake_Release_graphviz-install-9.0.0-win32.exe",
      "bits": 32,
      "sha256": "https://gitlab.com/api/v4/projects/4207231/packages/generic/graphviz-releases/9.0.0/windows_10_cmake_Release_graphviz-install-9.0.0-win32.exe.sha256"
    }
  ]
}